<define-tag pagetitle>DSA-4824-1 chromium</define-tag>
<define-tag report_date>2021-1-01</define-tag>
<define-tag secrefs>CVE-2020-6510 CVE-2020-6511 CVE-2020-6512 CVE-2020-6513 CVE-2020-6514 CVE-2020-6515 CVE-2020-6516 CVE-2020-6517 CVE-2020-6518 CVE-2020-6519 CVE-2020-6520 CVE-2020-6521 CVE-2020-6522 CVE-2020-6523 CVE-2020-6524 CVE-2020-6525 CVE-2020-6526 CVE-2020-6527 CVE-2020-6528 CVE-2020-6529 CVE-2020-6530 CVE-2020-6531 CVE-2020-6532 CVE-2020-6533 CVE-2020-6534 CVE-2020-6535 CVE-2020-6536 CVE-2020-6537 CVE-2020-6538 CVE-2020-6539 CVE-2020-6540 CVE-2020-6541 CVE-2020-6542 CVE-2020-6543 CVE-2020-6544 CVE-2020-6545 CVE-2020-6546 CVE-2020-6547 CVE-2020-6548 CVE-2020-6549 CVE-2020-6550 CVE-2020-6551 CVE-2020-6552 CVE-2020-6553 CVE-2020-6554 CVE-2020-6555 CVE-2020-6556 CVE-2020-6557 CVE-2020-6558 CVE-2020-6559 CVE-2020-6560 CVE-2020-6561 CVE-2020-6562 CVE-2020-6563 CVE-2020-6564 CVE-2020-6565 CVE-2020-6566 CVE-2020-6567 CVE-2020-6568 CVE-2020-6569 CVE-2020-6570 CVE-2020-6571 CVE-2020-6573 CVE-2020-6574 CVE-2020-6575 CVE-2020-6576 CVE-2020-15959 CVE-2020-15960 CVE-2020-15961 CVE-2020-15962 CVE-2020-15963 CVE-2020-15964 CVE-2020-15965 CVE-2020-15966 CVE-2020-15967 CVE-2020-15968 CVE-2020-15969 CVE-2020-15970 CVE-2020-15971 CVE-2020-15972 CVE-2020-15973 CVE-2020-15974 CVE-2020-15975 CVE-2020-15976 CVE-2020-15977 CVE-2020-15978 CVE-2020-15979 CVE-2020-15980 CVE-2020-15981 CVE-2020-15982 CVE-2020-15983 CVE-2020-15984 CVE-2020-15985 CVE-2020-15986 CVE-2020-15987 CVE-2020-15988 CVE-2020-15989 CVE-2020-15990 CVE-2020-15991 CVE-2020-15992 CVE-2020-15999 CVE-2020-16000 CVE-2020-16001 CVE-2020-16002 CVE-2020-16003 CVE-2020-16004 CVE-2020-16005 CVE-2020-16006 CVE-2020-16007 CVE-2020-16008 CVE-2020-16009 CVE-2020-16011 CVE-2020-16012 CVE-2020-16013 CVE-2020-16014 CVE-2020-16015 CVE-2020-16016 CVE-2020-16017 CVE-2020-16018 CVE-2020-16019 CVE-2020-16020 CVE-2020-16021 CVE-2020-16022 CVE-2020-16023 CVE-2020-16024 CVE-2020-16025 CVE-2020-16026 CVE-2020-16027 CVE-2020-16028 CVE-2020-16029 CVE-2020-16030 CVE-2020-16031 CVE-2020-16032 CVE-2020-16033 CVE-2020-16034 CVE-2020-16035 CVE-2020-16036 CVE-2020-16037 CVE-2020-16038 CVE-2020-16039 CVE-2020-16040 CVE-2020-16041 CVE-2020-16042</define-tag>
<define-tag packages>chromium</define-tag>
<define-tag isvulnerable>yes</define-tag>
<define-tag fixed>yes</define-tag>
<define-tag fixed-section>no</define-tag>

#use wml::debian::security



</dl>
