<define-tag pagetitle>DSA-4900-1 gst-plugins-good1.0</define-tag>
<define-tag report_date>2021-4-24</define-tag>
<define-tag secrefs>CVE-2021-3497 CVE-2021-3498 Bug#986910 Bug#986911</define-tag>
<define-tag packages>gst-plugins-good1.0</define-tag>
<define-tag isvulnerable>yes</define-tag>
<define-tag fixed>yes</define-tag>
<define-tag fixed-section>no</define-tag>

#use wml::debian::security



</dl>
