<define-tag pagetitle>DSA-4823-1 influxdb</define-tag>
<define-tag report_date>2021-1-01</define-tag>
<define-tag secrefs>CVE-2019-20933</define-tag>
<define-tag packages>influxdb</define-tag>
<define-tag isvulnerable>yes</define-tag>
<define-tag fixed>yes</define-tag>
<define-tag fixed-section>no</define-tag>

#use wml::debian::security



</dl>
