<define-tag pagetitle>DSA-4906-1 chromium</define-tag>
<define-tag report_date>2021-4-27</define-tag>
<define-tag secrefs>CVE-2021-21201 CVE-2021-21202 CVE-2021-21203 CVE-2021-21204 CVE-2021-21205 CVE-2021-21207 CVE-2021-21208 CVE-2021-21209 CVE-2021-21210 CVE-2021-21211 CVE-2021-21212 CVE-2021-21213 CVE-2021-21214 CVE-2021-21215 CVE-2021-21216 CVE-2021-21217 CVE-2021-21218 CVE-2021-21219 CVE-2021-21221 CVE-2021-21222 CVE-2021-21223 CVE-2021-21224 CVE-2021-21225 CVE-2021-21226</define-tag>
<define-tag packages>chromium</define-tag>
<define-tag isvulnerable>yes</define-tag>
<define-tag fixed>yes</define-tag>
<define-tag fixed-section>no</define-tag>

#use wml::debian::security



</dl>
