<define-tag pagetitle>DSA-4957-1 trafficserver</define-tag>
<define-tag report_date>2021-8-13</define-tag>
<define-tag secrefs>CVE-2021-27577 CVE-2021-32566 CVE-2021-32567 CVE-2021-35474 CVE-2021-32565</define-tag>
<define-tag packages>trafficserver</define-tag>
<define-tag isvulnerable>yes</define-tag>
<define-tag fixed>yes</define-tag>
<define-tag fixed-section>no</define-tag>

#use wml::debian::security



</dl>
