<define-tag pagetitle>DSA-4640-1 graphicsmagick</define-tag>
<define-tag report_date>2020-3-15</define-tag>
<define-tag secrefs>CVE-2019-19950 CVE-2019-19951 CVE-2019-19953 CVE-2019-11474 CVE-2019-11473 CVE-2019-11506 CVE-2019-11505 CVE-2019-11010 CVE-2019-11009 CVE-2019-11008 CVE-2019-11007 CVE-2019-11006 CVE-2019-11005 CVE-2018-20189 CVE-2018-20185 CVE-2018-20184</define-tag>
<define-tag packages>graphicsmagick</define-tag>
<define-tag isvulnerable>yes</define-tag>
<define-tag fixed>yes</define-tag>
<define-tag fixed-section>no</define-tag>

#use wml::debian::security



</dl>
