<define-tag pagetitle>DSA-4688-1 dpdk</define-tag>
<define-tag report_date>2020-5-18</define-tag>
<define-tag secrefs>CVE-2020-10722 CVE-2020-10723 CVE-2020-10724</define-tag>
<define-tag packages>dpdk</define-tag>
<define-tag isvulnerable>yes</define-tag>
<define-tag fixed>yes</define-tag>
<define-tag fixed-section>no</define-tag>

#use wml::debian::security



</dl>
