<define-tag pagetitle>DLA-2600-1 pygments</define-tag>
<define-tag report_date>2021-03-19</define-tag>
<define-tag secrefs>CVE-2021-27291</define-tag>
<define-tag packages>pygments</define-tag>
<define-tag isvulnerable>yes</define-tag>
<define-tag fixed>yes</define-tag>
<define-tag fixed-section>no</define-tag>

#use wml::debian::security
