<define-tag pagetitle>DLA-2102-1 firefox-esr</define-tag>
<define-tag report_date>2020-02-13</define-tag>
<define-tag secrefs>CVE-2020-6796 CVE-2020-6798 CVE-2020-6800</define-tag>
<define-tag packages>firefox-esr</define-tag>
<define-tag isvulnerable>yes</define-tag>
<define-tag fixed>yes</define-tag>
<define-tag fixed-section>no</define-tag>

#use wml::debian::security

