<define-tag pagetitle>DLA-1435-1 dnsmasq</define-tag>
<define-tag report_date>2018-7-20</define-tag>
<define-tag secrefs>Bug#860064</define-tag>
<define-tag packages>dnsmasq</define-tag>
<define-tag isvulnerable>yes</define-tag>
<define-tag fixed>yes</define-tag>
<define-tag fixed-section>no</define-tag>

#use wml::debian::security

