<define-tag pagetitle>DLA-1235-1 opencv</define-tag>
<define-tag report_date>2018-1-8</define-tag>
<define-tag secrefs>CVE-2017-17760 CVE-2017-1000450</define-tag>
<define-tag packages>opencv</define-tag>
<define-tag isvulnerable>yes</define-tag>
<define-tag fixed>yes</define-tag>
<define-tag fixed-section>no</define-tag>

#use wml::debian::security

