<define-tag pagetitle>DLA-1698-2 file</define-tag>
<define-tag report_date>2019-11-30</define-tag>
<define-tag packages>file</define-tag>
<define-tag isvulnerable>yes</define-tag>
<define-tag fixed>yes</define-tag>
<define-tag fixed-section>no</define-tag>

#use wml::debian::security

