<define-tag pagetitle>DLA-459-1 mercurial</define-tag>
<define-tag report_date>2016-5-6</define-tag>
<define-tag secrefs>CVE-2016-3105</define-tag>
<define-tag packages>mercurial</define-tag>
<define-tag isvulnerable>yes</define-tag>
<define-tag fixed>yes</define-tag>
<define-tag fixed-section>no</define-tag>

#use wml::debian::security

